<svg width="100" height="54" viewBox="0 0 100 54" fill="none" xmlns="http://www.w3.org/2000/svg">
<path d="M25.5807 5.15988V34.375C25.5807 35.9404 26.8497 37.2093 28.4151 37.2093C29.9804 37.2093 31.2494 35.9404 31.2494 34.375V21.0756C31.2494 20.3531 31.835 19.7675 32.5575 19.7675C33.28 19.7675 33.8656 20.3531 33.8656 21.0756V31.2093C33.8656 34.523 36.5519 37.2093 39.8656 37.2093H43.604C45.2095 37.2093 46.511 35.9078 46.511 34.3023C46.511 32.6969 45.2095 31.3954 43.604 31.3954H41.5342C40.4297 31.3954 39.5342 30.4999 39.5342 29.3954V21.7674C39.5342 20.6629 40.4297 19.7675 41.5342 19.7675H42.4412C44.0467 19.7675 45.3482 18.466 45.3482 16.8605C45.3482 15.255 44.0467 13.9535 42.4412 13.9535H41.5342C40.4297 13.9535 39.5342 13.0581 39.5342 11.9535V6.65116C39.5342 5.54659 38.6388 4.65116 37.5342 4.65116H35.8656C34.7611 4.65116 33.8656 5.54659 33.8656 6.65116V12.6454C33.8656 13.3678 33.28 13.9535 32.5575 13.9535C31.835 13.9535 31.2494 13.3678 31.2494 12.6454V5.15988C31.2494 3.59454 29.9804 2.32558 28.4151 2.32558C26.8497 2.32558 25.5807 3.59454 25.5807 5.15988Z" fill="url(#paint0_linear)"/>
<path d="M9.83548 2.23872L1.01926 33.5852C0.507596 35.4045 1.87481 37.2093 3.76466 37.2093C4.98918 37.2093 6.07703 36.4276 6.4676 35.267L10.0067 24.7508C10.2806 23.9369 11.0435 23.3887 11.9023 23.3887H13.6791C14.5379 23.3887 15.3008 23.9369 15.5747 24.7508L19.1138 35.267C19.5044 36.4276 20.5922 37.2093 21.8167 37.2093C23.7066 37.2093 25.0738 35.4045 24.5621 33.5852L15.7459 2.23872C15.3736 0.914746 14.166 0 12.7907 0C11.4154 0 10.2078 0.914743 9.83548 2.23872Z" fill="url(#paint1_linear)"/>
<circle cx="52.3254" cy="32.5589" r="4.65116" fill="url(#paint2_linear)"/>
<circle cx="68.6062" cy="24.4185" r="9.2907" stroke="url(#paint3_linear)" stroke-width="7"/>
<path d="M81.3953 41.4744V34.1358V24.0941C81.3953 22.9895 80.4999 22.0941 79.3953 22.0941H76.4186C75.314 22.0941 74.4186 22.9895 74.4186 24.0941V50.7189C74.4186 51.6551 75.5901 52.078 76.1881 51.3575L79.0901 47.8611C80.5799 46.0662 81.3953 43.807 81.3953 41.4744Z" fill="url(#paint4_linear)"/>
<circle cx="87.2093" cy="24.4185" r="9.2907" stroke="url(#paint5_linear)" stroke-width="7"/>
<defs>
<linearGradient id="paint0_linear" x1="36.0459" y1="2.32558" x2="36.0459" y2="37.2093" gradientUnits="userSpaceOnUse">
<stop stop-color="#1D976C"/>
<stop offset="1" stop-color="#93F9B9"/>
</linearGradient>
<linearGradient id="paint1_linear" x1="12.7907" y1="0" x2="12.7907" y2="37.2093" gradientUnits="userSpaceOnUse">
<stop stop-color="#1D976C"/>
<stop offset="1" stop-color="#93F9B9"/>
</linearGradient>
<linearGradient id="paint2_linear" x1="52.3254" y1="27.9077" x2="52.3254" y2="37.2101" gradientUnits="userSpaceOnUse">
<stop stop-color="#1D976C"/>
<stop offset="1" stop-color="#93F9B9"/>
</linearGradient>
<linearGradient id="paint3_linear" x1="68.6062" y1="11.6278" x2="68.6062" y2="37.2092" gradientUnits="userSpaceOnUse">
<stop stop-color="#1D976C"/>
<stop offset="1" stop-color="#93F9B9"/>
</linearGradient>
<linearGradient id="paint4_linear" x1="78" y1="-1.00003" x2="77.907" y2="53.4894" gradientUnits="userSpaceOnUse">
<stop stop-color="#1D976C"/>
<stop offset="1" stop-color="#93F9B9"/>
</linearGradient>
<linearGradient id="paint5_linear" x1="87.2093" y1="11.6278" x2="87.2093" y2="37.2092" gradientUnits="userSpaceOnUse">
<stop stop-color="#1D976C"/>
<stop offset="1" stop-color="#93F9B9"/>
</linearGradient>
</defs>
</svg>
