<svg width="200" height="200" viewBox="0 0 200 200" fill="none" xmlns="http://www.w3.org/2000/svg">
<rect x="4" y="4" width="192" height="192" rx="27" fill="#243565" stroke="url(#paint0_linear)" stroke-width="8"/>
<path d="M91.4978 45.917L61.4296 152.826C60.7119 155.378 62.6296 157.909 65.2802 157.909H75.0803C76.7977 157.909 78.3235 156.813 78.8713 155.185L91.4014 117.953C91.9492 116.325 93.475 115.229 95.1925 115.229H103.808C105.525 115.229 107.051 116.325 107.599 117.953L120.129 155.185C120.676 156.813 122.202 157.909 123.92 157.909H133.72C136.37 157.909 138.288 155.378 137.57 152.826L107.502 45.917C107.017 44.1919 105.444 43 103.652 43H95.3484C93.5563 43 91.983 44.1919 91.4978 45.917Z" fill="url(#paint1_linear)"/>
<defs>
<linearGradient id="paint0_linear" x1="100" y1="0" x2="100" y2="200" gradientUnits="userSpaceOnUse">
<stop stop-color="#1D976C"/>
<stop offset="1" stop-color="#93F9B9"/>
</linearGradient>
<linearGradient id="paint1_linear" x1="100" y1="-1.5" x2="100" y2="198" gradientUnits="userSpaceOnUse">
<stop stop-color="#1D976C"/>
<stop offset="1" stop-color="#93F9B9"/>
</linearGradient>
</defs>
</svg>
