<svg width="205" height="36" viewBox="0 0 205 36" fill="none" xmlns="http://www.w3.org/2000/svg">
<path d="M19.924 13.7L15.316 23.42C14.644 24.716 13.804 25.364 12.796 25.364C11.812 25.364 10.984 24.68 10.312 23.312L5.632 13.7V29H0.628V3.368H5.56L12.796 18.164L19.996 3.368H24.928V29H19.924V13.7ZM45.5397 8.444L37.7277 31.304C37.3677 32.336 36.8997 33.14 36.3237 33.716C35.3637 34.676 34.0197 35.156 32.2917 35.156H30.0957V30.944H31.5357C32.2077 30.944 32.6997 30.824 33.0117 30.584C33.3477 30.368 33.6357 29.924 33.8757 29.252L34.2357 28.244L28.0437 8.444H32.9757L36.6477 22.736L40.6077 8.444H45.5397ZM74.6479 5.6C76.1359 7.064 76.8799 9.224 76.8799 12.08C76.8799 14.936 76.1359 17.108 74.6479 18.596C73.1839 20.06 71.1079 20.792 68.4199 20.792H63.4879V29H58.4839V3.368H68.4199C71.1079 3.368 73.1839 4.112 74.6479 5.6ZM71.8759 12.08C71.8759 9.248 70.6399 7.832 68.1679 7.832H63.4879V16.292H68.1679C69.3679 16.292 70.2799 15.968 70.9039 15.32C71.5519 14.672 71.8759 13.592 71.8759 12.08ZM92.3574 8.516L91.0614 13.124C90.7014 12.98 90.2934 12.908 89.8374 12.908C88.6374 12.908 87.1614 13.424 85.4094 14.456V29H80.7294V8.444H84.2214L85.3014 10.244L90.2694 8.192C90.5094 8.168 90.8334 8.156 91.2414 8.156C91.6494 8.156 92.0214 8.276 92.3574 8.516ZM107.321 19.712V17.84C107.321 16.064 107.057 14.708 106.529 13.772C106.025 12.836 104.957 12.368 103.325 12.368C100.685 12.368 99.3647 14.144 99.3647 17.696V19.568C99.3647 23.384 100.685 25.292 103.325 25.292C105.029 25.292 106.145 24.656 106.673 23.384C107.105 22.376 107.321 21.152 107.321 19.712ZM112.001 18.632C112.001 23.072 111.161 26.048 109.481 27.56C108.065 28.856 106.013 29.504 103.325 29.504C99.8927 29.504 97.5767 28.496 96.3767 26.48C95.2487 24.632 94.6847 22.016 94.6847 18.632C94.6847 15.464 95.2487 12.98 96.3767 11.18C97.6247 9.164 99.8927 8.156 103.181 8.156C106.493 8.156 108.785 9.044 110.057 10.82C111.353 12.572 112.001 15.176 112.001 18.632ZM121.144 9.2V29.756C121.144 31.22 120.676 32.48 119.74 33.536C118.828 34.592 117.472 35.12 115.672 35.12H113.008V31.16H114.808C115.912 31.16 116.464 30.596 116.464 29.468V9.2H121.144ZM118.84 0.595999C119.968 0.595999 120.7 0.775999 121.036 1.136C121.372 1.472 121.54 2.204 121.54 3.332C121.54 4.436 121.36 5.168 121 5.528C120.664 5.864 119.932 6.032 118.804 6.032C117.7 6.032 116.968 5.852 116.608 5.492C116.272 5.132 116.104 4.4 116.104 3.296C116.104 2.192 116.272 1.472 116.608 1.136C116.968 0.775999 117.712 0.595999 118.84 0.595999ZM142.506 19.82H130.518C130.518 21.692 130.806 23.06 131.382 23.924C131.982 24.788 133.17 25.22 134.946 25.22C136.098 25.22 136.95 24.86 137.502 24.14C138.054 23.396 138.33 22.688 138.33 22.016H142.542C142.542 24.584 141.846 26.468 140.454 27.668C139.086 28.868 137.262 29.468 134.982 29.468C132.726 29.468 130.974 29.144 129.726 28.496C127.158 27.176 125.874 23.672 125.874 17.984C125.874 14.6 126.606 12.128 128.07 10.568C129.534 8.984 131.766 8.192 134.766 8.192C139.974 8.192 142.578 11.084 142.578 16.868C142.578 17.492 142.554 18.476 142.506 19.82ZM130.626 16.616H138.33C138.33 15.032 138.03 13.88 137.43 13.16C136.83 12.44 135.906 12.08 134.658 12.08C133.434 12.08 132.45 12.452 131.706 13.196C130.986 13.916 130.626 15.056 130.626 16.616ZM158.052 21.476L162.3 21.44C162.276 21.632 162.252 21.98 162.228 22.484C162.204 22.988 162.18 23.336 162.156 23.528C162.156 23.696 162.132 23.972 162.084 24.356C162.036 24.74 161.976 25.028 161.904 25.22C161.856 25.388 161.784 25.616 161.688 25.904C161.256 27.152 160.08 28.136 158.16 28.856C156.936 29.288 155.652 29.504 154.308 29.504C152.988 29.504 151.788 29.288 150.708 28.856C149.628 28.424 148.776 27.872 148.152 27.2C146.736 25.712 146.028 22.928 146.028 18.848C146.028 14.744 146.736 11.948 148.152 10.46C148.776 9.788 149.628 9.236 150.708 8.804C151.788 8.372 152.988 8.156 154.308 8.156C156.9 8.156 158.868 8.804 160.212 10.1C161.556 11.396 162.228 13.196 162.228 15.5H157.98C157.98 14.444 157.716 13.664 157.188 13.16C156.66 12.632 155.676 12.368 154.236 12.368C152.82 12.368 151.872 12.812 151.392 13.7C150.936 14.588 150.708 15.92 150.708 17.696V19.568C150.708 22.424 151.26 24.176 152.364 24.824C152.868 25.136 153.528 25.292 154.344 25.292C155.16 25.292 155.82 25.22 156.324 25.076C156.852 24.908 157.224 24.632 157.44 24.248C157.68 23.864 157.836 23.492 157.908 23.132C157.98 22.748 158.028 22.196 158.052 21.476ZM175.712 29H172.796C171.02 29 169.664 28.472 168.728 27.416C167.816 26.36 167.36 25.1 167.36 23.636V12.836H165.38V9.272H167.36V5.24H172.04V9.272H175.352V12.836H172.04V23.348C172.04 24.476 172.58 25.04 173.66 25.04H175.712V29ZM194.417 23.312V23.852C194.273 25.652 193.505 27.008 192.113 27.92C190.745 28.832 189.029 29.288 186.965 29.288C183.917 29.288 181.781 28.736 180.557 27.632C179.429 26.624 178.865 25.136 178.865 23.168V22.736H183.113C183.113 23.84 183.401 24.596 183.977 25.004C184.553 25.412 185.549 25.616 186.965 25.616C188.885 25.616 189.845 24.92 189.845 23.528C189.845 22.376 189.509 21.608 188.837 21.224C188.525 21.032 188.129 20.888 187.649 20.792L184.013 20.18C180.845 19.676 179.261 17.696 179.261 14.24C179.261 12.32 179.957 10.832 181.349 9.776C182.765 8.696 184.553 8.156 186.713 8.156C191.633 8.156 194.093 10.28 194.093 14.528V14.996H190.025C189.977 13.868 189.677 13.1 189.125 12.692C188.573 12.284 187.793 12.08 186.785 12.08C185.801 12.08 185.057 12.284 184.553 12.692C184.049 13.076 183.797 13.508 183.797 13.988C183.797 15.356 184.349 16.136 185.453 16.328L189.809 17.12C192.881 17.696 194.417 19.76 194.417 23.312ZM203.992 24.176C204.376 24.536 204.568 25.316 204.568 26.516C204.568 27.716 204.376 28.508 203.992 28.892C203.632 29.276 202.852 29.468 201.652 29.468C200.452 29.468 199.66 29.276 199.276 28.892C198.892 28.508 198.7 27.716 198.7 26.516C198.7 25.316 198.892 24.536 199.276 24.176C199.66 23.792 200.452 23.6 201.652 23.6C202.852 23.6 203.632 23.792 203.992 24.176Z" fill="#93F9B9" fill-opacity="0.2"/>
</svg>
