<svg width="84" height="43" viewBox="0 0 84 43" fill="none" xmlns="http://www.w3.org/2000/svg">
<path d="M62.75 1.25L45.3284 18.6716C43.7663 20.2337 41.2337 20.2337 39.6716 18.6716L21.75 0.75" stroke="url(#paint0_linear)" stroke-width="2"/>
<path d="M1 1L35.4289 35.4289C39.3342 39.3342 45.6658 39.3342 49.5711 35.4289L83 2" stroke="url(#paint1_linear)" stroke-width="2"/>
<defs>
<linearGradient id="paint0_linear" x1="42.25" y1="0.75" x2="42.25" y2="21.5" gradientUnits="userSpaceOnUse">
<stop stop-color="#1D976C"/>
<stop offset="1" stop-color="#93F9B9"/>
</linearGradient>
<linearGradient id="paint1_linear" x1="42" y1="1" x2="42" y2="42.5" gradientUnits="userSpaceOnUse">
<stop stop-color="#1D976C"/>
<stop offset="1" stop-color="#93F9B9"/>
</linearGradient>
</defs>
</svg>
